<?xml version="1.0" encoding="UTF-8" standalone="no"?>
<!-- Created with Inkscape (http://www.inkscape.org/) -->

<svg
   xmlns:dc="http://purl.org/dc/elements/1.1/"
   xmlns:cc="http://creativecommons.org/ns#"
   xmlns:rdf="http://www.w3.org/1999/02/22-rdf-syntax-ns#"
   xmlns:svg="http://www.w3.org/2000/svg"
   xmlns="http://www.w3.org/2000/svg"
   xmlns:sodipodi="http://sodipodi.sourceforge.net/DTD/sodipodi-0.dtd"
   xmlns:inkscape="http://www.inkscape.org/namespaces/inkscape"
   width="1052.3622"
   height="744.09448"
   id="svg2"
   version="1.1"
   inkscape:version="0.48.5 r10040"
   sodipodi:docname="arquitetura.svg">
  <defs
     id="defs4">
    <marker
       inkscape:stockid="Arrow2Lend"
       orient="auto"
       refY="0.0"
       refX="0.0"
       id="Arrow2Lend"
       style="overflow:visible;">
      <path
         id="path4235"
         style="fill-rule:evenodd;stroke-width:0.62500000;stroke-linejoin:round;"
         d="M 8.7185878,4.0337352 L -2.2072895,0.016013256 L 8.7185884,-4.0017078 C 6.9730900,-1.6296469 6.9831476,1.6157441 8.7185878,4.0337352 z "
         transform="scale(1.1) rotate(180) translate(1,0)" />
    </marker>
    <marker
       inkscape:stockid="Arrow1Lend"
       orient="auto"
       refY="0.0"
       refX="0.0"
       id="Arrow1Lend"
       style="overflow:visible;">
      <path
         id="path4217"
         d="M 0.0,0.0 L 5.0,-5.0 L -12.5,0.0 L 5.0,5.0 L 0.0,0.0 z "
         style="fill-rule:evenodd;stroke:#000000;stroke-width:1.0pt;"
         transform="scale(0.8) rotate(180) translate(12.5,0)" />
    </marker>
    <marker
       inkscape:stockid="Arrow2Lstart"
       orient="auto"
       refY="0.0"
       refX="0.0"
       id="Arrow2Lstart"
       style="overflow:visible">
      <path
         id="path4232"
         style="fill-rule:evenodd;stroke-width:0.62500000;stroke-linejoin:round"
         d="M 8.7185878,4.0337352 L -2.2072895,0.016013256 L 8.7185884,-4.0017078 C 6.9730900,-1.6296469 6.9831476,1.6157441 8.7185878,4.0337352 z "
         transform="scale(1.1) translate(1,0)" />
    </marker>
    <filter
       inkscape:collect="always"
       id="filter4204">
      <feGaussianBlur
         inkscape:collect="always"
         stdDeviation="0.90693666"
         id="feGaussianBlur4206" />
    </filter>
    <marker
       inkscape:stockid="Arrow2Lstart"
       orient="auto"
       refY="0"
       refX="0"
       id="Arrow2Lstart-3"
       style="overflow:visible">
      <path
         inkscape:connector-curvature="0"
         id="path4232-8"
         style="fill-rule:evenodd;stroke-width:0.625;stroke-linejoin:round"
         d="M 8.7185878,4.0337352 -2.2072895,0.01601326 8.7185884,-4.0017078 c -1.7454984,2.3720609 -1.7354408,5.6174519 -6e-7,8.035443 z"
         transform="matrix(1.1,0,0,1.1,1.1,0)" />
    </marker>
    <marker
       inkscape:stockid="Arrow2Lstart"
       orient="auto"
       refY="0"
       refX="0"
       id="Arrow2Lstart-7"
       style="overflow:visible">
      <path
         inkscape:connector-curvature="0"
         id="path4232-5"
         style="fill-rule:evenodd;stroke-width:0.625;stroke-linejoin:round"
         d="M 8.7185878,4.0337352 -2.2072895,0.01601326 8.7185884,-4.0017078 c -1.7454984,2.3720609 -1.7354408,5.6174519 -6e-7,8.035443 z"
         transform="matrix(1.1,0,0,1.1,1.1,0)" />
    </marker>
    <marker
       inkscape:stockid="Arrow2Lstart"
       orient="auto"
       refY="0"
       refX="0"
       id="Arrow2Lstart-6"
       style="overflow:visible">
      <path
         inkscape:connector-curvature="0"
         id="path4232-0"
         style="fill-rule:evenodd;stroke-width:0.625;stroke-linejoin:round"
         d="M 8.7185878,4.0337352 -2.2072895,0.01601326 8.7185884,-4.0017078 c -1.7454984,2.3720609 -1.7354408,5.6174519 -6e-7,8.035443 z"
         transform="matrix(1.1,0,0,1.1,1.1,0)" />
    </marker>
    <marker
       inkscape:stockid="Arrow2Lstart"
       orient="auto"
       refY="0"
       refX="0"
       id="Arrow2Lstart-0"
       style="overflow:visible">
      <path
         inkscape:connector-curvature="0"
         id="path4232-4"
         style="fill-rule:evenodd;stroke-width:0.625;stroke-linejoin:round"
         d="M 8.7185878,4.0337352 -2.2072895,0.01601326 8.7185884,-4.0017078 c -1.7454984,2.3720609 -1.7354408,5.6174519 -6e-7,8.035443 z"
         transform="matrix(1.1,0,0,1.1,1.1,0)" />
    </marker>
  </defs>
  <sodipodi:namedview
     id="base"
     pagecolor="#ffffff"
     bordercolor="#666666"
     borderopacity="1.0"
     inkscape:pageopacity="0.0"
     inkscape:pageshadow="2"
     inkscape:zoom="0.64104762"
     inkscape:cx="526.18109"
     inkscape:cy="372.04724"
     inkscape:document-units="px"
     inkscape:current-layer="layer6"
     showgrid="false"
     inkscape:window-width="1366"
     inkscape:window-height="702"
     inkscape:window-x="0"
     inkscape:window-y="27"
     inkscape:window-maximized="1"
     showguides="true"
     inkscape:guide-bbox="true"
     inkscape:snap-global="true"
     inkscape:snap-to-guides="true">
    <sodipodi:guide
       orientation="0,1"
       position="282.35032,190.31347"
       id="guide3099" />
  </sodipodi:namedview>
  <metadata
     id="metadata7">
    <rdf:RDF>
      <cc:Work
         rdf:about="">
        <dc:format>image/svg+xml</dc:format>
        <dc:type
           rdf:resource="http://purl.org/dc/dcmitype/StillImage" />
        <dc:title />
      </cc:Work>
    </rdf:RDF>
  </metadata>
  <g
     inkscape:label="Camada 1"
     inkscape:groupmode="layer"
     id="layer1"
     transform="translate(0,-308.2677)"
     style="display:inline">
    <g
       inkscape:groupmode="layer"
       id="layer4"
       inkscape:label="Release 1"
       style="display:inline">
      <g
         style="display:inline"
         id="g3018"
         transform="matrix(1.0487632,0,0,1.0487632,191.64539,322.79499)">
        <rect
           ry="24.959145"
           rx="24.959145"
           transform="translate(0,308.2677)"
           y="205.91293"
           x="99.836578"
           height="106.07636"
           width="215.27261"
           id="rect3020"
           style="color:#000000;fill:#fce94f;fill-opacity:1;fill-rule:nonzero;stroke:#c4a000;stroke-width:0.5;stroke-linecap:butt;stroke-linejoin:miter;stroke-miterlimit:4;stroke-opacity:0.55984557;stroke-dasharray:none;stroke-dashoffset:0;marker:none;visibility:visible;display:inline;overflow:visible;enable-background:accumulate" />
        <text
           sodipodi:linespacing="125%"
           id="text3022"
           y="575.49884"
           x="175.63876"
           style="font-size:24px;font-style:normal;font-variant:normal;font-weight:normal;font-stretch:normal;line-height:125%;letter-spacing:0px;word-spacing:0px;fill:#000000;fill-opacity:1;stroke:none;font-family:Cantarell;-inkscape-font-specification:Cantarell"
           xml:space="preserve"><tspan
             y="575.49884"
             x="175.63876"
             id="tspan3024"
             sodipodi:role="line">Gitlab</tspan></text>
      </g>
      <g
         style="display:inline"
         id="g3034"
         transform="matrix(1.0487632,0,0,1.0487632,306.06685,81.422743)">
        <rect
           ry="24.959145"
           rx="24.959145"
           y="205.91293"
           x="99.836578"
           height="106.07636"
           width="215.27261"
           id="rect3036"
           style="color:#000000;fill:#fce94f;fill-opacity:1;fill-rule:nonzero;stroke:#c4a000;stroke-width:0.5;stroke-linecap:butt;stroke-linejoin:miter;stroke-miterlimit:4;stroke-opacity:0.55984557;stroke-dasharray:none;stroke-dashoffset:0;marker:none;visibility:visible;display:inline;overflow:visible;enable-background:accumulate"
           transform="translate(0,308.2677)" />
        <text
           sodipodi:linespacing="125%"
           id="text3038"
           y="575.53479"
           x="169.5842"
           style="font-size:24px;font-style:normal;font-variant:normal;font-weight:normal;font-stretch:normal;line-height:125%;letter-spacing:0px;word-spacing:0px;fill:#000000;fill-opacity:1;stroke:none;font-family:Cantarell;-inkscape-font-specification:Cantarell"
           xml:space="preserve"><tspan
             y="575.53479"
             x="169.5842"
             id="tspan3040"
             sodipodi:role="line">COLAB</tspan></text>
      </g>
      <text
         xml:space="preserve"
         style="font-size:35.07794952px;font-style:normal;font-variant:normal;font-weight:normal;font-stretch:normal;text-align:end;line-height:125%;letter-spacing:0px;word-spacing:0px;text-anchor:end;fill:#000000;fill-opacity:1;stroke:none;display:inline;font-family:Cantarell;-inkscape-font-specification:Cantarell"
         x="403.62509"
         y="811.03802"
         id="text5794"
         sodipodi:linespacing="125%"><tspan
           style="font-size:24px"
           id="tspan5796"
           sodipodi:role="line"
           x="403.62509"
           y="811.03802">reverse</tspan><tspan
           style="font-size:24px"
           id="tspan5798"
           sodipodi:role="line"
           x="403.62509"
           y="841.03802">proxy</tspan></text>
      <g
         style="display:inline"
         id="g4162"
         transform="matrix(1.2246528,0,0,1.2246528,-187.08689,-117.06738)">
        <path
           style="color:#000000;fill:#d3d7cf;fill-opacity:1;fill-rule:nonzero;stroke:#888a85;stroke-width:1;marker:none;visibility:visible;display:inline;overflow:visible;filter:url(#filter4204);enable-background:accumulate"
           d="m 980.59318,139.797 c 17.0069,8.94984 10.30349,31.40417 -0.70601,37.7558 -11.0095,6.35163 -37.90709,19.21307 -49.70657,-0.39875 2.54017,20.64944 -19.54928,20.18224 -36.33123,20.95915 -17.81498,0.82473 -49.37315,-3.46246 -44.05258,-23.16525 -7.9388,22.36945 -30.97573,8.95648 -41.98523,2.60485 -11.00949,-6.35163 -21.57357,-16.67242 -10.63345,-30.03446 -14.98152,10.90503 -25.00457,-9.91046 -25.00457,-19.60273 0,-9.69226 3.40476,-18.92575 9.56189,-27.32407 6.15713,-8.398324 28.30323,-25.337404 39.31272,-11.282635 -4.43319,-14.624499 10.8824,-22.522221 25.43949,-26.074412 14.5571,-3.552192 43.24686,-2.758853 46.25868,15.992976 1.90876,-19.303353 33.90768,-19.545168 48.46477,-15.992976 14.5571,3.552191 29.50393,21.991947 22.68187,36.553375 8.93603,-13.696619 30.75897,-3.241775 33.24595,6.870442 2.58674,10.51782 1.71823,33.79603 -16.54573,33.13869 z"
           id="path4139"
           inkscape:connector-curvature="0"
           sodipodi:nodetypes="cscscscsscscscsc"
           transform="translate(0,308.2677)" />
        <text
           sodipodi:linespacing="125%"
           id="text3991-4"
           y="445.11697"
           x="848.65881"
           style="font-size:20.55302429px;font-style:normal;font-variant:normal;font-weight:normal;font-stretch:normal;line-height:125%;letter-spacing:0px;word-spacing:0px;fill:#000000;fill-opacity:1;stroke:none;font-family:Cantarell;-inkscape-font-specification:Cantarell"
           xml:space="preserve"><tspan
             y="445.11697"
             x="848.65881"
             id="tspan3993-2"
             sodipodi:role="line">Persona</tspan></text>
      </g>
      <path
         style="color:#000000;fill:none;stroke:#000000;stroke-width:1.71686578;stroke-linecap:butt;stroke-linejoin:miter;stroke-miterlimit:4;stroke-opacity:1;stroke-dasharray:none;stroke-dashoffset:0;marker:none;marker-start:url(#Arrow2Lstart);marker-end:url(#Arrow2Lend);visibility:visible;display:inline;overflow:visible;enable-background:accumulate"
         d="M 647.68119,623.19188 789.97294,488.62653"
         id="path4208"
         inkscape:connector-curvature="0" />
      <text
         xml:space="preserve"
         style="font-size:35.07794952px;font-style:normal;font-variant:normal;font-weight:normal;font-stretch:normal;line-height:125%;letter-spacing:0px;word-spacing:0px;fill:#000000;fill-opacity:1;stroke:none;display:inline;font-family:Cantarell;-inkscape-font-specification:Cantarell"
         x="742.79999"
         y="576.80627"
         id="text5586"
         sodipodi:linespacing="125%"><tspan
           sodipodi:role="line"
           id="tspan5588"
           x="742.79999"
           y="576.80627"
           style="font-size:24px">autenticação</tspan></text>
      <path
         inkscape:connector-curvature="0"
         id="path5780-1"
         d="m 407.05186,863.01908 34.63562,-39.52942 71.49002,-81.59119"
         style="display:inline;color:#000000;fill:none;stroke:#000000;stroke-width:1.98764801000000002;stroke-linecap:butt;stroke-linejoin:miter;stroke-miterlimit:4;stroke-opacity:1;stroke-dasharray:none;stroke-dashoffset:0;marker:none;marker-start:url(#Arrow2Lstart);visibility:visible;overflow:visible;enable-background:accumulate"
         sodipodi:nodetypes="ccc" />
    </g>
    <g
       inkscape:groupmode="layer"
       id="layer5"
       inkscape:label="Release 2"
       style="display:inline">
      <g
         style="display:inline"
         transform="matrix(1.0487632,0,0,1.0487632,432.42251,322.79499)"
         id="g3042">
        <rect
           style="color:#000000;fill:#fce94f;fill-opacity:1;fill-rule:nonzero;stroke:#c4a000;stroke-width:0.5;stroke-linecap:butt;stroke-linejoin:miter;stroke-miterlimit:4;stroke-opacity:0.55984557;stroke-dasharray:none;stroke-dashoffset:0;marker:none;visibility:visible;display:inline;overflow:visible;enable-background:accumulate"
           id="rect3044"
           width="215.27261"
           height="106.07636"
           x="99.836578"
           y="205.91293"
           transform="translate(0,308.2677)"
           rx="24.959145"
           ry="24.959145" />
        <text
           xml:space="preserve"
           style="font-size:24px;font-style:normal;font-variant:normal;font-weight:normal;font-stretch:normal;line-height:125%;letter-spacing:0px;word-spacing:0px;fill:#000000;fill-opacity:1;stroke:none;font-family:Cantarell;-inkscape-font-specification:Cantarell"
           x="157.44057"
           y="575.46283"
           id="text3046"
           sodipodi:linespacing="125%"><tspan
             sodipodi:role="line"
             id="tspan3048"
             x="157.44057"
             y="575.46283">Noosfero</tspan></text>
      </g>
      <path
         inkscape:connector-curvature="0"
         id="path5780"
         d="M 625.88712,862.04871 601.12081,823.18363 550.00159,742.96374"
         style="color:#000000;fill:none;stroke:#000000;stroke-width:1.78455126;stroke-linecap:butt;stroke-linejoin:miter;stroke-miterlimit:4;stroke-opacity:1;stroke-dasharray:none;stroke-dashoffset:0;marker:none;marker-start:url(#Arrow2Lstart);visibility:visible;display:inline;overflow:visible;enable-background:accumulate"
         sodipodi:nodetypes="ccc" />
      <text
         sodipodi:linespacing="125%"
         id="text5800"
         y="810.79822"
         x="573.45898"
         style="font-size:35.07794952px;font-style:normal;font-variant:normal;font-weight:normal;font-stretch:normal;text-align:end;line-height:125%;letter-spacing:0px;word-spacing:0px;text-anchor:end;fill:#000000;fill-opacity:1;stroke:none;display:inline;font-family:Cantarell;-inkscape-font-specification:Cantarell"
         xml:space="preserve"><tspan
           y="810.79822"
           x="573.45898"
           sodipodi:role="line"
           id="tspan5802"
           style="font-size:24px">reverse</tspan><tspan
           y="840.79822"
           x="573.45898"
           sodipodi:role="line"
           id="tspan5804"
           style="font-size:24px">proxy</tspan></text>
    </g>
    <g
       inkscape:groupmode="layer"
       id="layer6"
       inkscape:label="Release 3"
       style="display:inline">
      <g
         style="display:inline"
         transform="matrix(1.0487632,0,0,1.0487632,304.38567,-160.28827)"
         id="g3987">
        <rect
           transform="translate(0,308.2677)"
           style="color:#000000;fill:#fce94f;fill-opacity:1;fill-rule:nonzero;stroke:#c4a000;stroke-width:0.5;stroke-linecap:butt;stroke-linejoin:miter;stroke-miterlimit:4;stroke-opacity:0.55984557;stroke-dasharray:none;stroke-dashoffset:0;marker:none;visibility:visible;display:inline;overflow:visible;enable-background:accumulate"
           id="rect3989"
           width="215.27261"
           height="106.07636"
           x="99.836578"
           y="205.91293"
           rx="24.959145"
           ry="24.959145" />
        <text
           xml:space="preserve"
           style="font-size:24px;font-style:normal;font-variant:normal;font-weight:normal;font-stretch:normal;line-height:125%;letter-spacing:0px;word-spacing:0px;fill:#000000;fill-opacity:1;stroke:none;font-family:Cantarell;-inkscape-font-specification:Cantarell"
           x="162.60152"
           y="575.11481"
           id="text3991"
           sodipodi:linespacing="125%"><tspan
             sodipodi:role="line"
             id="tspan3993"
             x="162.60152"
             y="575.11481">varnish</tspan></text>
      </g>
      <path
         inkscape:connector-curvature="0"
         id="path5590"
         d="m 521.94917,606.27336 0,-102.3349"
         style="color:#000000;fill:none;stroke:#000000;stroke-width:1.5;stroke-linecap:butt;stroke-linejoin:miter;stroke-miterlimit:4;stroke-opacity:1;stroke-dasharray:none;stroke-dashoffset:0;marker:none;marker-start:url(#Arrow2Lstart);visibility:visible;display:inline;overflow:visible;enable-background:accumulate"
         sodipodi:nodetypes="cc" />
      <text
         sodipodi:linespacing="125%"
         id="text5784"
         y="531.56781"
         x="515.61975"
         style="font-size:35.07794952px;font-style:normal;font-variant:normal;font-weight:normal;font-stretch:normal;text-align:end;line-height:125%;letter-spacing:0px;word-spacing:0px;text-anchor:end;fill:#000000;fill-opacity:1;stroke:none;display:inline;font-family:Cantarell;-inkscape-font-specification:Cantarell"
         xml:space="preserve"><tspan
           y="531.56781"
           x="515.61975"
           sodipodi:role="line"
           id="tspan5788"
           style="font-size:24px">caching reverse</tspan><tspan
           y="561.56781"
           x="515.61975"
           sodipodi:role="line"
           id="tspan5792"
           style="font-size:24px">proxy</tspan></text>
      <g
         style="display:inline"
         transform="matrix(1.0487632,0,0,1.0487632,695.94508,322.79502)"
         id="g3026">
        <rect
           style="color:#000000;fill:#fce94f;fill-opacity:1;fill-rule:nonzero;stroke:#c4a000;stroke-width:0.5;stroke-linecap:butt;stroke-linejoin:miter;stroke-miterlimit:4;stroke-opacity:0.55984557;stroke-dasharray:none;stroke-dashoffset:0;marker:none;visibility:visible;display:inline;overflow:visible;enable-background:accumulate"
           id="rect3028"
           width="215.27261"
           height="106.07636"
           x="84.580536"
           y="514.1806"
           rx="24.959145"
           ry="24.959145" />
        <text
           xml:space="preserve"
           style="font-size:24px;font-style:normal;font-variant:normal;font-weight:normal;font-stretch:normal;line-height:125%;letter-spacing:0px;word-spacing:0px;fill:#000000;fill-opacity:1;stroke:none;font-family:Cantarell;-inkscape-font-specification:Cantarell"
           x="140.15532"
           y="572.52283"
           id="text3030"
           sodipodi:linespacing="125%"><tspan
             sodipodi:role="line"
             id="tspan3032"
             x="140.15532"
             y="572.52283">Redmine</tspan></text>
      </g>
      <path
         sodipodi:nodetypes="cc"
         style="color:#000000;fill:none;stroke:#000000;stroke-width:1.61405158;stroke-linecap:butt;stroke-linejoin:miter;stroke-miterlimit:4;stroke-opacity:1;stroke-dasharray:none;stroke-dashoffset:0;marker:none;marker-start:url(#Arrow2Lstart);visibility:visible;display:inline;overflow:visible;enable-background:accumulate"
         d="M 910.70412,862.04871 576.48398,741.66401"
         id="path5782"
         inkscape:connector-curvature="0" />
      <text
         xml:space="preserve"
         style="font-size:35.07794952px;font-style:normal;font-variant:normal;font-weight:normal;font-stretch:normal;text-align:end;line-height:125%;letter-spacing:0px;word-spacing:0px;text-anchor:end;fill:#000000;fill-opacity:1;stroke:none;display:inline;font-family:Cantarell;-inkscape-font-specification:Cantarell"
         x="700.77582"
         y="808.40039"
         id="text5806"
         sodipodi:linespacing="125%"><tspan
           style="font-size:24px;text-align:end;text-anchor:end"
           id="tspan5808"
           sodipodi:role="line"
           x="700.77582"
           y="808.40039">reverse</tspan><tspan
           style="font-size:24px;text-align:end;text-anchor:end"
           id="tspan5810"
           sodipodi:role="line"
           x="700.77582"
           y="838.40039">proxy</tspan></text>
      <g
         style="display:inline"
         id="g3018-3"
         transform="matrix(1.0487632,0,0,1.0487632,-21.605533,322.79499)">
        <g
           id="g3101"
           transform="translate(-35.697969,2.6519798e-5)">
          <rect
             style="color:#000000;fill:#fce94f;fill-opacity:1;fill-rule:nonzero;stroke:#c4a000;stroke-width:0.5;stroke-linecap:butt;stroke-linejoin:miter;stroke-miterlimit:4;stroke-opacity:0.55984557;stroke-dasharray:none;stroke-dashoffset:0;marker:none;visibility:visible;display:inline;overflow:visible;enable-background:accumulate"
             id="rect3020-3"
             width="215.27261"
             height="106.07636"
             x="110.24849"
             y="514.1806"
             rx="24.959145"
             ry="24.959145" />
          <text
             xml:space="preserve"
             style="font-size:24px;font-style:normal;font-variant:normal;font-weight:normal;font-stretch:normal;line-height:125%;letter-spacing:0px;word-spacing:0px;fill:#000000;fill-opacity:1;stroke:none;font-family:Cantarell;-inkscape-font-specification:Cantarell"
             x="175.63876"
             y="575.49884"
             id="text3022-9"
             sodipodi:linespacing="125%"><tspan
               sodipodi:role="line"
               id="tspan3024-8"
               x="175.63876"
               y="575.49884">Mezuro</tspan></text>
        </g>
      </g>
      <text
         xml:space="preserve"
         style="font-size:35.07794952px;font-style:normal;font-variant:normal;font-weight:normal;font-stretch:normal;text-align:end;line-height:125%;letter-spacing:0px;word-spacing:0px;text-anchor:end;fill:#000000;fill-opacity:1;stroke:none;display:inline;font-family:Cantarell;-inkscape-font-specification:Cantarell"
         x="173.28563"
         y="810.71472"
         id="text5794-1"
         sodipodi:linespacing="125%"><tspan
           style="font-size:24px"
           id="tspan5796-4"
           sodipodi:role="line"
           x="173.28563"
           y="810.71472">reverse</tspan><tspan
           style="font-size:24px"
           id="tspan5798-5"
           sodipodi:role="line"
           x="173.28563"
           y="840.71472">proxy</tspan></text>
      <path
         sodipodi:nodetypes="cc"
         style="color:#000000;fill:none;stroke:#000000;stroke-width:1.32906294;stroke-linecap:butt;stroke-linejoin:miter;stroke-miterlimit:4;stroke-opacity:1;stroke-dasharray:none;stroke-dashoffset:0;marker:none;marker-start:url(#Arrow2Lstart);visibility:visible;display:inline;overflow:visible;enable-background:accumulate"
         d="M 171.55621,862.20281 424.99804,742.08872"
         id="path5782-1"
         inkscape:connector-curvature="0" />
    </g>
    <g
       inkscape:groupmode="layer"
       id="layer3"
       inkscape:label="Redmine?"
       style="display:inline">
      <g
         style="display:inline"
         id="g3982-8"
         transform="matrix(0.85637598,0,0,0.85637598,764.61109,284.46864)">
        <rect
           ry="24.959145"
           rx="24.959145"
           transform="translate(0,308.2677)"
           y="319.78903"
           x="9.3596792"
           height="213.00365"
           width="300.29459"
           id="rect3208-5"
           style="color:#000000;fill:#eeeeec;fill-opacity:0.75289576;fill-rule:nonzero;stroke:#c4a000;stroke-width:0.5;stroke-linecap:butt;stroke-linejoin:miter;stroke-miterlimit:4;stroke-opacity:0.55984557;stroke-dasharray:none;stroke-dashoffset:0;marker:none;visibility:visible;display:inline;overflow:visible;enable-background:accumulate" />
        <text
           transform="matrix(0.70710678,-0.70710678,0.70710678,0.70710678,0,0)"
           sodipodi:linespacing="125%"
           id="text3978-6"
           y="651.67572"
           x="-448.05447"
           style="font-size:31.58511734px;font-style:normal;font-variant:normal;font-weight:normal;font-stretch:normal;line-height:125%;letter-spacing:0px;word-spacing:0px;fill:#babdb6;fill-opacity:1;stroke:#000000;stroke-width:1;stroke-opacity:1;font-family:Cantarell;-inkscape-font-specification:Cantarell"
           xml:space="preserve"><tspan
             y="651.67572"
             x="-448.05447"
             id="tspan3980-8"
             sodipodi:role="line"
             style="font-size:46.70845795px;stroke-width:1">???</tspan></text>
      </g>
    </g>
  </g>
  <g
     inkscape:groupmode="layer"
     id="layer2"
     inkscape:label="Manutenção"
     style="display:inline">
    <g
       style="display:inline"
       id="g3982"
       transform="matrix(0.85637598,0,0,0.85637598,766.17102,-22.239114)">
      <rect
         ry="24.959145"
         rx="24.959145"
         transform="translate(0,308.2677)"
         y="319.78903"
         x="9.3596792"
         height="213.00365"
         width="300.29459"
         id="rect3208"
         style="color:#000000;fill:#eeeeec;fill-opacity:0.75289576;fill-rule:nonzero;stroke:#c4a000;stroke-width:0.5;stroke-linecap:butt;stroke-linejoin:miter;stroke-miterlimit:4;stroke-opacity:0.55984557;stroke-dasharray:none;stroke-dashoffset:0;marker:none;visibility:visible;display:inline;overflow:visible;enable-background:accumulate" />
      <text
         transform="matrix(0.70710678,-0.70710678,0.70710678,0.70710678,0,0)"
         sodipodi:linespacing="125%"
         id="text3978"
         y="636.21924"
         x="-486.69577"
         style="font-size:31.58511734px;font-style:normal;font-variant:normal;font-weight:normal;font-stretch:normal;line-height:125%;letter-spacing:0px;word-spacing:0px;fill:#babdb6;fill-opacity:1;stroke:#000000;stroke-opacity:1;font-family:Cantarell;-inkscape-font-specification:Cantarell"
         xml:space="preserve"><tspan
           y="636.21924"
           x="-486.69577"
           id="tspan3980"
           sodipodi:role="line">zzzzzzzzz ...</tspan></text>
    </g>
    <text
       xml:space="preserve"
       style="font-size:14px;font-style:normal;font-variant:normal;font-weight:normal;font-stretch:normal;text-align:end;line-height:125%;letter-spacing:0px;word-spacing:0px;text-anchor:end;fill:#000000;fill-opacity:1;stroke:none;font-family:Cantarell;-inkscape-font-specification:Cantarell"
       x="1028.0608"
       y="422.74551"
       id="text5867"
       sodipodi:linespacing="125%"><tspan
         sodipodi:role="line"
         id="tspan5869"
         x="1028.0608"
         y="422.74551"
         style="font-size:28px;font-style:italic;text-align:end;text-anchor:end;fill:#4e9a06;-inkscape-font-specification:Cantarell Italic">Aplicações podem</tspan><tspan
         sodipodi:role="line"
         x="1028.0608"
         y="457.74551"
         id="tspan5871"
         style="font-size:28px;font-style:italic;text-align:end;text-anchor:end;fill:#4e9a06;-inkscape-font-specification:Cantarell Italic">receber manutenção</tspan><tspan
         sodipodi:role="line"
         x="1028.0608"
         y="492.74551"
         style="font-size:28px;font-style:italic;text-align:end;text-anchor:end;fill:#4e9a06;-inkscape-font-specification:Cantarell Italic"
         id="tspan5877">individualmente</tspan></text>
  </g>
</svg>
